bench/fem/assembly/cpp/bench.log                                                                            filter=fat -text #      15059 5
bench/logs/bench.log                                                                                        filter=fat -text #      16429 1
ChangeLog                                                                                                   filter=fat -text #      61077 626
cmake/FindPETSc.dolfin.cmake                                                                                filter=fat -text #      12001 12
CMakeLists.txt                                                                                              filter=fat -text #      29209 209
cmake/modules/FindBLAS.cmake                                                                                filter=fat -text #      19871 11
cmake/modules/FindLAPACK.cmake                                                                              filter=fat -text #      12147 9
cmake/modules/FindMPI.cmake                                                                                 filter=fat -text #      30645 2
cmake/modules/FindPETSc.cmake                                                                               filter=fat -text #      12424 8
cmake/modules/FindSCOTCH.cmake                                                                              filter=fat -text #      11349 6
cmake/scripts/generate-swig-docstrings                                                                      filter=fat -text #      15348 1
cmake/scripts/generate-swig-interface                                                                       filter=fat -text #      20324 2
configure.ac                                                                                                filter=fat -text #      19931 141
COPYING                                                                                                     filter=fat -text #      35147 3
demo/pde/cahn-hilliard/cpp/documentation.rst                                                                filter=fat -text #      12504 7
demo/pde/cahn-hilliard/python/documentation.rst                                                             filter=fat -text #      10749 4
demo/pde/navier-stokes/cpp/documentation.rst                                                                filter=fat -text #      11915 13
depcomp                                                                                                     filter=fat -text #      13681 1
dolfin/CMakeLists.txt                                                                                       filter=fat -text #      15218 117
dolfin/common/MPI.h                                                                                         filter=fat -text #      17978 38
dolfin/fem/DirichletBC.h                                                                                    filter=fat -text #      17816 27
dolfin/fem/DofMap.h                                                                                         filter=fat -text #      15200 61
dolfin/fem/FiniteElement.h                                                                                  filter=fat -text #      11957 2
dolfin/fem/Form.h                                                                                           filter=fat -text #      11317 10
dolfin/function/Function.h                                                                                  filter=fat -text #      10901 14
dolfin/generation/CGALMeshBuilder.h                                                                         filter=fat -text #      15522 10
dolfin/intersection/IntersectionOperatorImplementation.h                                                    filter=fat -text #      18010 10
dolfin/io/HDF5Interface.h                                                                                   filter=fat -text #      28734 40
dolfin/io/pugixml.hpp                                                                                       filter=fat -text #      44294 2
dolfin/io/XMLMeshFunction.h                                                                                 filter=fat -text #      10024 2
dolfin/la/STLMatrix.h                                                                                       filter=fat -text #      13344 14
dolfin/la/uBlasKrylovSolver.h                                                                               filter=fat -text #      12487 6
dolfin/la/uBLASKrylovSolver.h                                                                               filter=fat -text #      15779 44
dolfin/la/uBlasMatrix.h                                                                                     filter=fat -text #      17826 33
dolfin/la/uBLASMatrix.h                                                                                     filter=fat -text #      23722 59
dolfin/mesh/IntersectionOperatorImplementation.h                                                            filter=fat -text #      14509 10
dolfin/mesh/MeshEditor.h                                                                                    filter=fat -text #      10589 3
dolfin/mesh/MeshFunction.h                                                                                  filter=fat -text #      19933 46
dolfin/mesh/Mesh.h                                                                                          filter=fat -text #      26329 94
dolfin/mesh/MeshPartitioning.h                                                                              filter=fat -text #      14987 45
dolfin/mesh/MeshValueCollection.h                                                                           filter=fat -text #      16949 23
dolfin/plot/VTKPlotter.h                                                                                    filter=fat -text #      14363 56
dolfin/SConscript                                                                                           filter=fat -text #      17587 62
dolfin/swig/dolfin_la_get_set_items.h                                                                       filter=fat -text #      13852 2
dolfin/swig/dolfin_la_get_set_items.i                                                                       filter=fat -text #      14133 4
dolfin/swig/dolfin_la_post.i                                                                                filter=fat -text #      24245 30
dolfin/swig/fem/pre.i                                                                                       filter=fat -text #      10541 7
dolfin/swig/la_get_set_items.i                                                                              filter=fat -text #      15304 19
dolfin/swig/la/la_get_set_items.i                                                                           filter=fat -text #      15938 12
dolfin/swig/la_post.i                                                                                       filter=fat -text #      30552 40
dolfin/swig/la/post.i                                                                                       filter=fat -text #      32092 22
dolfin/swig/la_pre.i                                                                                        filter=fat -text #      13092 16
dolfin/swig/la/pre.i                                                                                        filter=fat -text #      15126 21
dolfin/swig/mesh_post.i                                                                                     filter=fat -text #      10676 5
dolfin/swig/mesh/post.i                                                                                     filter=fat -text #      15445 21
dolfin/swig/modules/mesh/module.i                                                                           filter=fat -text #      10421 10
dolfin/swig/numpy_typemaps.i                                                                                filter=fat -text #      14967 14
dolfin/swig/parameter_post.i                                                                                filter=fat -text #      10110 2
dolfin/swig/shared_ptr_classes.i                                                                            filter=fat -text #      17225 32
dolfin/swig/std_vector_typemaps.i                                                                           filter=fat -text #      19520 25
dolfin/swig/typemaps/numpy.i                                                                                filter=fat -text #      16499 11
dolfin/swig/typemaps/std_vector.i                                                                           filter=fat -text #      24364 19
lib/Makefile.in                                                                                             filter=fat -text #      12131 1
Makefile                                                                                                    filter=fat -text #      10697 3
Makefile.in                                                                                                 filter=fat -text #      22392 82
misc/utils/convert/dolfin-convert                                                                           filter=fat -text #      29407 2
misc/utils/opendx/dolfin.cfg                                                                                filter=fat -text #      11930 1
misc/utils/opendx/dolfin.net                                                                                filter=fat -text #      68867 1
missing                                                                                                     filter=fat -text #      10872 1
sandbox/mtl4/conventional_backend/SConstruct                                                                filter=fat -text #      18556 1
sandbox/mtl4/DirectAssembler.h                                                                              filter=fat -text #      12691 4
sandbox/MTL4_LA/conventional_backend/SConstruct                                                             filter=fat -text #      18556 1
sandbox/MTL4_LA/DirectAssembler.h                                                                           filter=fat -text #      12681 1
SConstruct                                                                                                  filter=fat -text #      27352 94
src/bench/fem/Makefile.in                                                                                   filter=fat -text #      15691 20
src/bench/la/Makefile.in                                                                                    filter=fat -text #      15697 18
src/bench/Makefile.in                                                                                       filter=fat -text #      15682 24
src/bench/ode/Makefile.in                                                                                   filter=fat -text #      15693 21
src/common/Makefile                                                                                         filter=fat -text #      11579 4
src/common/Makefile.in                                                                                      filter=fat -text #      10650 3
src/config/dolfin-config                                                                                    filter=fat -text #      16175 1
src/config/Makefile.in                                                                                      filter=fat -text #      11715 21
src/demo/bench/bench.log                                                                                    filter=fat -text #      14115 6
src/demo/bench/la/bench.log                                                                                 filter=fat -text #      14192 3
src/demo/bench/Makefile.in                                                                                  filter=fat -text #      14331 5
src/demo/fem/Makefile.in                                                                                    filter=fat -text #      15683 28
src/demo/la/Makefile                                                                                        filter=fat -text #      17936 134
src/demo/la/Makefile.in                                                                                     filter=fat -text #      15685 4
src/demo/Makefile.in                                                                                        filter=fat -text #      16588 58
src/demo/mesh/Makefile.in                                                                                   filter=fat -text #      15625 3
src/demo/nls/Makefile.in                                                                                    filter=fat -text #      15708 25
src/demo/ode/homotopy/Makefile                                                                              filter=fat -text #      21653 5
src/demo/ode/homotopy/Makefile.in                                                                           filter=fat -text #      15721 22
src/demo/ode/Makefile.in                                                                                    filter=fat -text #      15843 26
src/demo/ode/modeling/Makefile                                                                              filter=fat -text #      21653 5
src/demo/ode/modeling/Makefile.in                                                                           filter=fat -text #      15146 5
src/demo/pde/Makefile.in                                                                                    filter=fat -text #      15753 28
src/demo/pde/nonlinear/Makefile.in                                                                          filter=fat -text #      15727 19
src/demo/pde/stokes/Makefile.in                                                                             filter=fat -text #      15723 22
src/demo/scripting/Makefile.in                                                                              filter=fat -text #      15703 25
src/demo/solvers/Makefile.in                                                                                filter=fat -text #      15856 36
src/demo/solvers/navierstokes/Makefile.in                                                                   filter=fat -text #      15740 27
src/demo/solvers/ode/bench/bench.log                                                                        filter=fat -text #      15985 11
src/demo/solvers/ode/homotopy/Makefile.in                                                                   filter=fat -text #      15030 7
src/demo/solvers/ode/Makefile.in                                                                            filter=fat -text #      15172 9
src/demo/solvers/ode/mechanical/Makefile.in                                                                 filter=fat -text #      12359 1
src/demo/solvers/ode/modeling/Makefile.in                                                                   filter=fat -text #      15030 7
src/demo/solvers/ode/stiff/Makefile                                                                         filter=fat -text #      18006 118
src/demo/solvers/ode/stiff/Makefile.in                                                                      filter=fat -text #      12369 1
src/fem/Makefile                                                                                            filter=fat -text #      14724 4
src/fem/Makefile.in                                                                                         filter=fat -text #      13805 3
src/greeting/Makefile.in                                                                                    filter=fat -text #      10352 13
src/grid/Makefile                                                                                           filter=fat -text #      11604 4
src/grid/Makefile.in                                                                                        filter=fat -text #      10845 4
src/io/Makefile                                                                                             filter=fat -text #      14779 4
src/io/Makefile.in                                                                                          filter=fat -text #      13860 3
src/kernel/common/dolfin/Array.h                                                                            filter=fat -text #      14464 11
src/kernel/common/dolfin/List.h                                                                             filter=fat -text #      16091 1
src/kernel/common/dolfin/Makefile.in                                                                        filter=fat -text #      10492 24
src/kernel/common/dolfin/PArray.h                                                                           filter=fat -text #      14563 5
src/kernel/common/dolfin/ShortList.h                                                                        filter=fat -text #      10238 1
src/kernel/common/dolfin/Table.h                                                                            filter=fat -text #      18044 7
src/kernel/common/Makefile.in                                                                               filter=fat -text #      21958 113
src/kernel/element/Makefile.in                                                                              filter=fat -text #      17497 13
src/kernel/elements/dolfin/Makefile.in                                                                      filter=fat -text #      10335 5
src/kernel/elements/Makefile.in                                                                             filter=fat -text #      21311 13
src/kernel/fem/dolfin/FEM.h                                                                                 filter=fat -text #      18358 27
src/kernel/fem/dolfin/Makefile.in                                                                           filter=fat -text #      11012 54
src/kernel/fem/Makefile                                                                                     filter=fat -text #      24744 184
src/kernel/fem/Makefile.in                                                                                  filter=fat -text #      24204 142
src/kernel/form/dolfin/Makefile.in                                                                          filter=fat -text #      10413 10
src/kernel/form/Makefile.in                                                                                 filter=fat -text #      22008 76
src/kernel/function/dolfin/Makefile.in                                                                      filter=fat -text #      10656 25
src/kernel/function/Makefile.in                                                                             filter=fat -text #      23215 86
src/kernel/graph/dolfin/Makefile.in                                                                         filter=fat -text #      10457 7
src/kernel/graph/Makefile.in                                                                                filter=fat -text #      22049 7
src/kernel/grid/Makefile.in                                                                                 filter=fat -text #      19407 29
src/kernel/io/dolfin/Makefile.in                                                                            filter=fat -text #      10846 38
src/kernel/io/Makefile.in                                                                                   filter=fat -text #      24974 114
src/kernel/la/dolfin/Makefile.in                                                                            filter=fat -text #      11583 47
src/kernel/la/dolfin/uBlasKrylovSolver.h                                                                    filter=fat -text #      12092 9
src/kernel/la/dolfin/uBlasMatrix.h                                                                          filter=fat -text #      16797 49
src/kernel/la/Makefile.in                                                                                   filter=fat -text #      26099 146
src/kernel/log/dolfin/Makefile.in                                                                           filter=fat -text #      10606 24
src/kernel/log/Makefile.in                                                                                  filter=fat -text #      23027 75
src/kernel/main/dolfin/Makefile.in                                                                          filter=fat -text #      10319 13
src/kernel/main/Makefile.in                                                                                 filter=fat -text #      22136 82
src/kernel/Makefile.in                                                                                      filter=fat -text #      15941 46
src/kernel/map/Makefile.in                                                                                  filter=fat -text #      17575 15
src/kernel/math/dolfin/Makefile.in                                                                          filter=fat -text #      10330 12
src/kernel/math/Makefile.in                                                                                 filter=fat -text #      21578 69
src/kernel/mesh/dolfin/Makefile.in                                                                          filter=fat -text #      11486 52
src/kernel/mesh/Makefile.in                                                                                 filter=fat -text #      30263 96
src/kernel/mf/dolfin/Makefile.in                                                                            filter=fat -text #      10449 14
src/kernel/mf/Makefile.in                                                                                   filter=fat -text #      21425 20
src/kernel/nls/dolfin/Makefile.in                                                                           filter=fat -text #      10365 14
src/kernel/nls/Makefile.in                                                                                  filter=fat -text #      21443 45
src/kernel/nlsolver/Makefile.in                                                                             filter=fat -text #      18957 2
src/kernel/ode/dolfin/Makefile.in                                                                           filter=fat -text #      11624 33
src/kernel/ode/Makefile.in                                                                                  filter=fat -text #      27590 120
src/kernel/parameter/dolfin/Makefile.in                                                                     filter=fat -text #      10476 16
src/kernel/parameter/Makefile.in                                                                            filter=fat -text #      22360 34
src/kernel/pde/dolfin/Makefile.in                                                                           filter=fat -text #      10405 15
src/kernel/pde/Makefile.in                                                                                  filter=fat -text #      21962 30
src/kernel/plot/dolfin/Makefile.in                                                                          filter=fat -text #      10219 4
src/kernel/plot/Makefile.in                                                                                 filter=fat -text #      21166 4
src/kernel/quadrature/dolfin/Makefile.in                                                                    filter=fat -text #      10492 16
src/kernel/quadrature/Makefile.in                                                                           filter=fat -text #      22256 71
src/kernel/settings/Makefile.in                                                                             filter=fat -text #      19928 33
src/kernel/tanganyika/Makefile.in                                                                           filter=fat -text #      16746 5
src/la/Makefile                                                                                             filter=fat -text #      11622 4
src/la/Makefile.in                                                                                          filter=fat -text #      10693 3
src/lib/Makefile.in                                                                                         filter=fat -text #      12977 34
src/main/Makefile                                                                                           filter=fat -text #      14285 4
src/main/Makefile.in                                                                                        filter=fat -text #      13324 3
src/Makefile.in                                                                                             filter=fat -text #      15784 39
src/modules/ale/dolfin/Makefile                                                                             filter=fat -text #      16291 13
src/modules/ale/dolfin/Makefile.in                                                                          filter=fat -text #      10526 4
src/modules/ale/Makefile                                                                                    filter=fat -text #      31089 13
src/modules/ale/Makefile.in                                                                                 filter=fat -text #      21705 3
src/modules/convdiff/dolfin/Makefile.in                                                                     filter=fat -text #      10397 10
src/modules/convdiff/Makefile                                                                               filter=fat -text #      11458 4
src/modules/convdiff/Makefile.in                                                                            filter=fat -text #      21520 76
src/modules/dolfin/Makefile.in                                                                              filter=fat -text #      10315 8
src/modules/elasticity/dolfin/Makefile.in                                                                   filter=fat -text #      10361 10
src/modules/elasticity/Makefile.in                                                                          filter=fat -text #      21455 59
src/modules/elasticity-stationary/Makefile.in                                                               filter=fat -text #      14053 13
src/modules/elasticity-updated/dolfin/Makefile.in                                                           filter=fat -text #      10536 13
src/modules/elasticity-updated/Makefile.in                                                                  filter=fat -text #      21778 63
src/modules/euler/Makefile.in                                                                               filter=fat -text #      10697 11
src/modules/fsi/dolfin/Makefile                                                                             filter=fat -text #      16286 13
src/modules/fsi/dolfin/Makefile.in                                                                          filter=fat -text #      10431 3
src/modules/fsi/Makefile                                                                                    filter=fat -text #      30990 13
src/modules/fsi/Makefile.in                                                                                 filter=fat -text #      21566 3
src/modules/heat/dolfin/Makefile.in                                                                         filter=fat -text #      10325 8
src/modules/heat/Makefile.in                                                                                filter=fat -text #      21301 45
src/modules/lib/Makefile                                                                                    filter=fat -text #      21292 2
src/modules/lib/Makefile.in                                                                                 filter=fat -text #      13082 2
src/modules/Makefile.in                                                                                     filter=fat -text #      17582 46
src/modules/navierstokes/dolfin/Makefile.in                                                                 filter=fat -text #      10417 10
src/modules/navierstokes/Makefile                                                                           filter=fat -text #      11367 4
src/modules/navierstokes/Makefile.in                                                                        filter=fat -text #      21773 83
src/modules/ode/Makefile.in                                                                                 filter=fat -text #      10515 2
src/modules/odesolver/Makefile.in                                                                           filter=fat -text #      13702 13
src/modules/plasticity/dolfin/Makefile                                                                      filter=fat -text #      14438 1
src/modules/plasticity/dolfin/Makefile.in                                                                   filter=fat -text #      10429 13
src/modules/plasticity/Makefile                                                                             filter=fat -text #      25818 1
src/modules/plasticity/Makefile.in                                                                          filter=fat -text #      22446 14
src/modules/poisson/dolfin/Makefile.in                                                                      filter=fat -text #      10357 10
src/modules/poisson/Makefile                                                                                filter=fat -text #      11353 4
src/modules/poisson/Makefile.in                                                                             filter=fat -text #      21426 77
src/modules/poisson-multigrid/Makefile.in                                                                   filter=fat -text #      10971 12
src/modules/python/Makefile                                                                                 filter=fat -text #      28709 2
src/modules/python/Makefile.in                                                                              filter=fat -text #      20143 2
src/modules/stokes/dolfin/Makefile.in                                                                       filter=fat -text #      10350 8
src/modules/stokes/Makefile.in                                                                              filter=fat -text #      21398 43
src/modules/template/Makefile                                                                               filter=fat -text #      11285 4
src/modules/template/Makefile.in                                                                            filter=fat -text #      13723 24
src/modules/wave/Makefile.in                                                                                filter=fat -text #      13611 14
src/modules/wave-vector/Makefile.in                                                                         filter=fat -text #      13793 13
src/pre/Makefile.in                                                                                         filter=fat -text #      10099 2
src/pydolfin/dolfin_wrap.h                                                                                  filter=fat -text #      21044 12
src/pydolfin/Makefile.in                                                                                    filter=fat -text #      21047 57
src/test/Makefile.in                                                                                        filter=fat -text #      15647 4
src/utils/convert/dolfin-convert                                                                            filter=fat -text #      29407 25
src/utils/convert/Makefile.in                                                                               filter=fat -text #      11320 25
src/utils/inp2dx/Makefile.in                                                                                filter=fat -text #      16158 40
src/utils/Makefile.in                                                                                       filter=fat -text #      15684 35
src/utils/opendx/dolfin.cfg                                                                                 filter=fat -text #      14462 5
src/utils/opendx/dolfin.net                                                                                 filter=fat -text #      68867 15
src/utils/swig/Makefile.in                                                                                  filter=fat -text #      11277 17
test/memory/dolfin_mpi.supp                                                                                 filter=fat -text #      11560 1
test/memory/dolfin_valgrind.supp                                                                            filter=fat -text #      53562 5
utils/opendx/dolfin.cfg                                                                                     filter=fat -text #      11930 1
utils/opendx/dolfin.net                                                                                     filter=fat -text #      68867 1
