COPYING                              filter=fat -text #      35068 1
cubicLagrange0.png                   filter=fat -text #      19508 1
dist/FIAT-0.2.0.tar.gz               filter=fat -text #      20631 1
dist/FIAT-0.2.2.tar.gz               filter=fat -text #      25205 1
FIAT/arg0.vtk                        filter=fat -text #      44756 1
FIAT/arg1.vtk                        filter=fat -text #      45268 1
FIAT/arg2.vtk                        filter=fat -text #      44954 1
FIAT/arg3.vtk                        filter=fat -text #      51288 1
FIAT/derivs/LICENSE                  filter=fat -text #      21863 1
FIAT_NEW/arg0.vtk                    filter=fat -text #      44756 1
FIAT_NEW/arg1.vtk                    filter=fat -text #      45268 1
FIAT_NEW/arg2.vtk                    filter=fat -text #      44954 1
FIAT_NEW/arg3.vtk                    filter=fat -text #      51288 1
FIAT_NEW/derivs/LICENSE              filter=fat -text #      21863 1
testing/verify.dat                   filter=fat -text #      19943 1
test/reference.pickle                filter=fat -text #   15559914 5
