bench/results/MassH1.eps                                                       filter=fat -text #      56828 1
bench/results/MassH1.pdf                                                       filter=fat -text #      18967 1
bench/results/MassHcurl.eps                                                    filter=fat -text #      55126 1
bench/results/MassHcurl.pdf                                                    filter=fat -text #      19246 1
bench/results/MassHdiv.eps                                                     filter=fat -text #      53644 1
bench/results/MassHdiv.pdf                                                     filter=fat -text #      18276 1
bench/results/NavierStokes.eps                                                 filter=fat -text #      44717 1
bench/results/NavierStokes.pdf                                                 filter=fat -text #      17254 1
bench/results/Poisson.eps                                                      filter=fat -text #      56491 1
bench/results/Poisson.pdf                                                      filter=fat -text #      18599 1
bench/results/WeightedPoisson.eps                                              filter=fat -text #      51608 1
bench/results/WeightedPoisson.pdf                                              filter=fat -text #      18166 1
ChangeLog                                                                      filter=fat -text #      16879 102
COPYING                                                                        filter=fat -text #      35147 2
demo/foo/ProjectionManifold.h                                                  filter=fat -text #      51730 3
demo/poisson/Poisson.h                                                         filter=fat -text #      61039 1
doc/eps/algebra.eps                                                            filter=fat -text #      22649 1
doc/eps/components.eps                                                         filter=fat -text #      32912 2
doc/manual/chapters/examples.tex                                               filter=fat -text #      17110 7
doc/manual/chapters/formlanguage.tex                                           filter=fat -text #      38559 24
doc/manual/chapters/license.tex                                                filter=fat -text #      35567 2
doc/manual/chapters/numbering_common.tex                                       filter=fat -text #      14689 5
doc/manual/chapters/referenceelements.tex                                      filter=fat -text #      10383 2
doc/manual/eps/algebra.eps                                                     filter=fat -text #      22649 1
doc/manual/eps/components.eps                                                  filter=fat -text #      32912 1
doc/manual/eps/ffc.eps                                                         filter=fat -text #     153201 1
doc/manual/ffc-user-manual.pdf                                                 filter=fat -text #     546572 71
doc/manual/ffc-user-manual.ps                                                  filter=fat -text #     253520 9
doc/manual/ffc-user-manual.tex                                                 filter=fat -text #      11920 1
src/reference/Elasticity.h                                                     filter=fat -text #      47188 34
src/reference/EnergyNorm.h                                                     filter=fat -text #      11740 21
src/reference/Heat.h                                                           filter=fat -text #      19531 24
src/reference/Mass.h                                                           filter=fat -text #      29803 25
src/reference/MixedPoisson.h                                                   filter=fat -text #      26941 10
src/reference/NavierStokes.h                                                   filter=fat -text #      48283 35
src/reference/NeumannProblem.h                                                 filter=fat -text #      21346 14
src/reference/Optimization.h                                                   filter=fat -text #      30158 18
src/reference/P5tet.h                                                          filter=fat -text #      13697 9
src/reference/PoissonDG.h                                                      filter=fat -text #     149328 7
src/reference/Poisson.h                                                        filter=fat -text #      12941 21
src/reference/PoissonSystem.h                                                  filter=fat -text #      17119 29
src/reference/Stokes.h                                                         filter=fat -text #      52431 25
src/reference/TensorWeightedPoisson.h                                          filter=fat -text #      20666 22
src/test/regression/reference/Constant.h                                       filter=fat -text #     139291 27
src/test/regression/reference/Elasticity.h                                     filter=fat -text #     290762 54
src/test/regression/reference/EnergyNorm.h                                     filter=fat -text #      50155 50
src/test/regression/reference/Equation.h                                       filter=fat -text #      88528 11
src/test/regression/reference/FunctionOperators.h                              filter=fat -text #      99358 24
src/test/regression/reference/Heat.h                                           filter=fat -text #     161595 52
src/test/regression/reference/Mass.h                                           filter=fat -text #     244855 50
src/test/regression/reference/MixedMixedElement.h                              filter=fat -text #     404305 31
src/test/regression/reference/MixedPoisson.h                                   filter=fat -text #     254748 66
src/test/regression/reference/NavierStokes.h                                   filter=fat -text #     432208 51
src/test/regression/reference/NeumannProblem.h                                 filter=fat -text #     344195 53
src/test/regression/reference/Optimization.h                                   filter=fat -text #     172481 52
src/test/regression/reference/P5tet.h                                          filter=fat -text #     630625 37
src/test/regression/reference/P5tri.h                                          filter=fat -text #      93433 25
src/test/regression/reference/PoissonDG.h                                      filter=fat -text #     241072 59
src/test/regression/reference/Poisson.h                                        filter=fat -text #      86719 52
src/test/regression/reference/PoissonSystem.h                                  filter=fat -text #     274801 53
src/test/regression/reference/Projection.h                                     filter=fat -text #      44084 47
src/test/regression/reference/QuadratureElement.h                              filter=fat -text #     328056 6
src/test/regression/reference/Stokes.h                                         filter=fat -text #     594370 56
src/test/regression/reference/SubDomain.h                                      filter=fat -text #      39777 3
src/test/regression/reference/SubDomains.h                                     filter=fat -text #     148560 10
src/test/regression/reference/TensorWeightedPoisson.h                          filter=fat -text #     132707 49
src/test/regression/reference/VectorLaplaceGradCurl.h                          filter=fat -text #     720466 13
src/test/verify_tensors/references/Mass_a                                      filter=fat -text #      10325 1
test/evaluate_basis_derivatives/reference.pickle                               filter=fat -text #    2190146 1
test/evaluate_basis/reference.pickle                                           filter=fat -text #      74647 1
test/old/old-regression/reference/quadrature/Biharmonic.h                      filter=fat -text #     204429 1
test/old/old-regression/reference/quadrature/Constant.h                        filter=fat -text #     138830 1
test/old/old-regression/reference/quadrature/Elasticity.h                      filter=fat -text #     254369 1
test/old/old-regression/reference/quadrature/ElementRestriction.h              filter=fat -text #     175075 1
test/old/old-regression/reference/quadrature/EnergyNorm.h                      filter=fat -text #      34936 1
test/old/old-regression/reference/quadrature/Equation.h                        filter=fat -text #      89551 1
test/old/old-regression/reference/quadrature/FacetIntegrals.h                  filter=fat -text #      76020 1
test/old/old-regression/reference/quadrature/FunctionOperators.h               filter=fat -text #      83788 1
test/old/old-regression/reference/quadrature/Heat.h                            filter=fat -text #     158435 1
test/old/old-regression/reference/quadrature/HyperElasticity.h                 filter=fat -text #    1061284 1
test/old/old-regression/reference/quadrature/Mass.h                            filter=fat -text #     202494 1
test/old/old-regression/reference/quadrature/MetaData.h                        filter=fat -text #      54522 1
test/old/old-regression/reference/quadrature/MixedMixedElement.h               filter=fat -text #     336174 1
test/old/old-regression/reference/quadrature/MixedPoisson.h                    filter=fat -text #     244680 1
test/old/old-regression/reference/quadrature/NavierStokes.h                    filter=fat -text #     378729 1
test/old/old-regression/reference/quadrature/NeumannProblem.h                  filter=fat -text #     334092 1
test/old/old-regression/reference/quadrature/Normals.h                         filter=fat -text #     204082 1
test/old/old-regression/reference/quadrature/Optimization.h                    filter=fat -text #     148817 1
test/old/old-regression/reference/quadrature/P5tet.h                           filter=fat -text #     447083 1
test/old/old-regression/reference/quadrature/P5tri.h                           filter=fat -text #      74278 1
test/old/old-regression/reference/quadrature/PoissonDG.h                       filter=fat -text #     173264 1
test/old/old-regression/reference/quadrature/Poisson.h                         filter=fat -text #      87278 1
test/old/old-regression/reference/quadrature/PoissonSystem.h                   filter=fat -text #     264133 1
test/old/old-regression/reference/quadrature/QuadratureElement.h               filter=fat -text #     174985 1
test/old/old-regression/reference/quadrature/ReactionDiffusion.h               filter=fat -text #      89142 1
test/old/old-regression/reference/quadrature/StabilisedStokes.h                filter=fat -text #     461722 1
test/old/old-regression/reference/quadrature/Stokes.h                          filter=fat -text #     529912 1
test/old/old-regression/reference/quadrature/SubDomain.h                       filter=fat -text #      45550 1
test/old/old-regression/reference/quadrature/SubDomains.h                      filter=fat -text #     115385 1
test/old/old-regression/reference/quadrature/TensorWeightedPoisson.h           filter=fat -text #     140429 1
test/old/old-regression/reference/quadrature/VectorLaplaceGradCurl.h           filter=fat -text #     594305 1
test/old/old-regression/reference/tensor/Constant.h                            filter=fat -text #     137828 1
test/old/old-regression/reference/tensor/Elasticity.h                          filter=fat -text #     283333 1
test/old/old-regression/reference/tensor/ElementRestriction.h                  filter=fat -text #     175075 1
test/old/old-regression/reference/tensor/EnergyNorm.h                          filter=fat -text #      37899 1
test/old/old-regression/reference/tensor/Equation.h                            filter=fat -text #      88065 1
test/old/old-regression/reference/tensor/FacetIntegrals.h                      filter=fat -text #     131153 1
test/old/old-regression/reference/tensor/Heat.h                                filter=fat -text #     158331 1
test/old/old-regression/reference/tensor/Mass.h                                filter=fat -text #     190786 1
test/old/old-regression/reference/tensor/MetaData.h                            filter=fat -text #      54522 1
test/old/old-regression/reference/tensor/MixedMixedElement.h                   filter=fat -text #     336174 1
test/old/old-regression/reference/tensor/MixedPoisson.h                        filter=fat -text #     248124 1
test/old/old-regression/reference/tensor/NavierStokes.h                        filter=fat -text #     395916 1
test/old/old-regression/reference/tensor/NeumannProblem.h                      filter=fat -text #     329666 1
test/old/old-regression/reference/tensor/Normals.h                             filter=fat -text #     204500 1
test/old/old-regression/reference/tensor/Optimization.h                        filter=fat -text #     148940 1
test/old/old-regression/reference/tensor/P5tet.h                               filter=fat -text #     447083 1
test/old/old-regression/reference/tensor/P5tri.h                               filter=fat -text #      74278 1
test/old/old-regression/reference/tensor/Poisson.h                             filter=fat -text #      85760 1
test/old/old-regression/reference/tensor/PoissonSystem.h                       filter=fat -text #     262724 1
test/old/old-regression/reference/tensor/ReactionDiffusion.h                   filter=fat -text #      86792 1
test/old/old-regression/reference/tensor/StabilisedStokes.h                    filter=fat -text #     484506 1
test/old/old-regression/reference/tensor/Stokes.h                              filter=fat -text #     533080 1
test/old/old-regression/reference/tensor/SubDomain.h                           filter=fat -text #      46688 1
test/old/old-regression/reference/tensor/SubDomains.h                          filter=fat -text #     126780 1
test/old/old-regression/reference/tensor/VectorLaplaceGradCurl.h               filter=fat -text #     730157 1
test/old-regression/reference/quadrature/Biharmonic.h                          filter=fat -text #     204429 1
test/old-regression/reference/quadrature/Constant.h                            filter=fat -text #     138830 1
test/old-regression/reference/quadrature/Elasticity.h                          filter=fat -text #     254369 1
test/old-regression/reference/quadrature/ElementRestriction.h                  filter=fat -text #     175075 1
test/old-regression/reference/quadrature/EnergyNorm.h                          filter=fat -text #      34936 1
test/old-regression/reference/quadrature/Equation.h                            filter=fat -text #      89551 1
test/old-regression/reference/quadrature/FacetIntegrals.h                      filter=fat -text #      76020 1
test/old-regression/reference/quadrature/FunctionOperators.h                   filter=fat -text #      83788 1
test/old-regression/reference/quadrature/Heat.h                                filter=fat -text #     158435 1
test/old-regression/reference/quadrature/HyperElasticity.h                     filter=fat -text #    1061284 1
test/old-regression/reference/quadrature/Mass.h                                filter=fat -text #     202494 1
test/old-regression/reference/quadrature/MetaData.h                            filter=fat -text #      54522 1
test/old-regression/reference/quadrature/MixedMixedElement.h                   filter=fat -text #     336174 1
test/old-regression/reference/quadrature/MixedPoisson.h                        filter=fat -text #     244680 1
test/old-regression/reference/quadrature/NavierStokes.h                        filter=fat -text #     378729 1
test/old-regression/reference/quadrature/NeumannProblem.h                      filter=fat -text #     334092 1
test/old-regression/reference/quadrature/Normals.h                             filter=fat -text #     204082 1
test/old-regression/reference/quadrature/Optimization.h                        filter=fat -text #     148817 1
test/old-regression/reference/quadrature/P5tet.h                               filter=fat -text #     447083 1
test/old-regression/reference/quadrature/P5tri.h                               filter=fat -text #      74278 1
test/old-regression/reference/quadrature/PoissonDG.h                           filter=fat -text #     173264 1
test/old-regression/reference/quadrature/Poisson.h                             filter=fat -text #      87278 1
test/old-regression/reference/quadrature/PoissonSystem.h                       filter=fat -text #     264133 1
test/old-regression/reference/quadrature/QuadratureElement.h                   filter=fat -text #     174985 1
test/old-regression/reference/quadrature/ReactionDiffusion.h                   filter=fat -text #      89142 1
test/old-regression/reference/quadrature/StabilisedStokes.h                    filter=fat -text #     461722 1
test/old-regression/reference/quadrature/Stokes.h                              filter=fat -text #     529912 1
test/old-regression/reference/quadrature/SubDomain.h                           filter=fat -text #      45550 1
test/old-regression/reference/quadrature/SubDomains.h                          filter=fat -text #     115385 1
test/old-regression/reference/quadrature/TensorWeightedPoisson.h               filter=fat -text #     140429 1
test/old-regression/reference/quadrature/VectorLaplaceGradCurl.h               filter=fat -text #     594305 1
test/old-regression/reference/tensor/Constant.h                                filter=fat -text #     137828 1
test/old-regression/reference/tensor/Elasticity.h                              filter=fat -text #     283333 1
test/old-regression/reference/tensor/ElementRestriction.h                      filter=fat -text #     175075 1
test/old-regression/reference/tensor/EnergyNorm.h                              filter=fat -text #      37899 1
test/old-regression/reference/tensor/Equation.h                                filter=fat -text #      88065 1
test/old-regression/reference/tensor/FacetIntegrals.h                          filter=fat -text #     131153 1
test/old-regression/reference/tensor/Heat.h                                    filter=fat -text #     158331 1
test/old-regression/reference/tensor/Mass.h                                    filter=fat -text #     190786 1
test/old-regression/reference/tensor/MetaData.h                                filter=fat -text #      54522 1
test/old-regression/reference/tensor/MixedMixedElement.h                       filter=fat -text #     336174 1
test/old-regression/reference/tensor/MixedPoisson.h                            filter=fat -text #     248124 1
test/old-regression/reference/tensor/NavierStokes.h                            filter=fat -text #     395916 1
test/old-regression/reference/tensor/NeumannProblem.h                          filter=fat -text #     329666 1
test/old-regression/reference/tensor/Normals.h                                 filter=fat -text #     204500 1
test/old-regression/reference/tensor/Optimization.h                            filter=fat -text #     148940 1
test/old-regression/reference/tensor/P5tet.h                                   filter=fat -text #     447083 1
test/old-regression/reference/tensor/P5tri.h                                   filter=fat -text #      74278 1
test/old-regression/reference/tensor/Poisson.h                                 filter=fat -text #      85760 1
test/old-regression/reference/tensor/PoissonSystem.h                           filter=fat -text #     262724 1
test/old-regression/reference/tensor/ReactionDiffusion.h                       filter=fat -text #      86792 1
test/old-regression/reference/tensor/StabilisedStokes.h                        filter=fat -text #     484506 1
test/old-regression/reference/tensor/Stokes.h                                  filter=fat -text #     533080 1
test/old-regression/reference/tensor/SubDomain.h                               filter=fat -text #      46688 1
test/old-regression/reference/tensor/SubDomains.h                              filter=fat -text #     126780 1
test/old-regression/reference/tensor/VectorLaplaceGradCurl.h                   filter=fat -text #     730157 1
test/old/simple_verify_tensors/reference.pickle                                filter=fat -text #    2072390 1
test/regression/reference/Biharmonic.h                                         filter=fat -text #     261538 1
test/regression/reference/Constant.h                                           filter=fat -text #     139332 10
test/regression/reference/Elasticity.h                                         filter=fat -text #     266969 9
test/regression/reference/EnergyNorm.h                                         filter=fat -text #      37213 10
test/regression/reference/Equation.h                                           filter=fat -text #      89702 10
test/regression/reference/FacetIntegrals.h                                     filter=fat -text #     130713 7
test/regression/reference/FunctionOperators.h                                  filter=fat -text #      94591 10
test/regression/reference/Heat.h                                               filter=fat -text #     158664 10
test/regression/reference/Mass.h                                               filter=fat -text #     210264 10
test/regression/reference/MixedMixedElement.h                                  filter=fat -text #     335577 6
test/regression/reference/MixedPoisson.h                                       filter=fat -text #     245416 10
test/regression/reference/NavierStokes.h                                       filter=fat -text #     394777 10
test/regression/reference/NeumannProblem.h                                     filter=fat -text #     335641 10
test/regression/reference/Optimization.h                                       filter=fat -text #     150675 10
test/regression/reference/P5tet.h                                              filter=fat -text #     447076 6
test/regression/reference/P5tri.h                                              filter=fat -text #      74267 6
test/regression/reference/PoissonDG.h                                          filter=fat -text #     227500 11
test/regression/reference/Poisson.h                                            filter=fat -text #      87396 10
test/regression/reference/PoissonSystem.h                                      filter=fat -text #     265568 10
test/regression/reference/Projection.h                                         filter=fat -text #      42282 3
test/regression/reference/quadrature/Biharmonic.h                              filter=fat -text #     261538 10
test/regression/reference/quadrature/Constant.h                                filter=fat -text #     138922 8
test/regression/reference/quadrature/Elasticity.h                              filter=fat -text #     256826 8
test/regression/reference/QuadratureElement.h                                  filter=fat -text #     294102 10
test/regression/reference/quadrature/ElementRestriction.h                      filter=fat -text #     175085 5
test/regression/reference/quadrature/EnergyNorm.h                              filter=fat -text #      34938 7
test/regression/reference/quadrature/Equation.h                                filter=fat -text #      89727 10
test/regression/reference/quadrature/FacetIntegrals.h                          filter=fat -text #     130522 10
test/regression/reference/quadrature/FunctionOperators.h                       filter=fat -text #      83802 8
test/regression/reference/quadrature/Heat.h                                    filter=fat -text #     158474 8
test/regression/reference/quadrature/HyperElasticity.h                         filter=fat -text #    1066545 4
test/regression/reference/quadrature/Mass.h                                    filter=fat -text #     208719 8
test/regression/reference/quadrature/MetaData.h                                filter=fat -text #      54598 6
test/regression/reference/quadrature/MixedMixedElement.h                       filter=fat -text #     336184 5
test/regression/reference/quadrature/MixedPoisson.h                            filter=fat -text #     245031 8
test/regression/reference/quadrature/NavierStokes.h                            filter=fat -text #     381308 8
test/regression/reference/quadrature/NeumannProblem.h                          filter=fat -text #     334820 8
test/regression/reference/quadrature/Normals.h                                 filter=fat -text #     204129 6
test/regression/reference/quadrature/Optimization.h                            filter=fat -text #     150287 8
test/regression/reference/quadrature/P5tet.h                                   filter=fat -text #     447093 5
test/regression/reference/quadrature/P5tri.h                                   filter=fat -text #      74288 5
test/regression/reference/quadrature/PoissonDG.h                               filter=fat -text #     228050 11
test/regression/reference/quadrature/Poisson.h                                 filter=fat -text #      87311 8
test/regression/reference/quadrature/PoissonSystem.h                           filter=fat -text #     264861 8
test/regression/reference/quadrature/QuadratureElement.h                       filter=fat -text #     175616 8
test/regression/reference/quadrature/ReactionDiffusion.h                       filter=fat -text #      89187 8
test/regression/reference/quadrature/StabilisedStokes.h                        filter=fat -text #     463098 8
test/regression/reference/quadrature/Stokes.h                                  filter=fat -text #     533702 8
test/regression/reference/quadrature/SubDomain.h                               filter=fat -text #      45550 8
test/regression/reference/quadrature/SubDomains.h                              filter=fat -text #     117603 9
test/regression/reference/quadrature/TensorWeightedPoisson.h                   filter=fat -text #     140711 8
test/regression/reference/quadrature/VectorLaplaceGradCurl.h                   filter=fat -text #     595522 8
test/regression/reference/ReactionDiffusion.h                                  filter=fat -text #      89309 3
test/regression/references/AdaptivePoisson.h                                   filter=fat -text #     219538 9
test/regression/references/AdaptivePoisson.out                                 filter=fat -text #      16627 3
test/regression/references/AlgebraOperators.h                                  filter=fat -text #      52714 21
test/regression/references/Biharmonic.h                                        filter=fat -text #     206222 41
test/regression/references/Biharmonic.out                                      filter=fat -text #      45357 18
test/regression/references/CoefficientOperators.h                              filter=fat -text #      47712 20
test/regression/references/Components.h                                        filter=fat -text #     194728 7
test/regression/references/Components.out                                      filter=fat -text #      37604 2
test/regression/references/Conditional.h                                       filter=fat -text #      95457 22
test/regression/references/Constant.h                                          filter=fat -text #     137655 31
test/regression/references/Constant.out                                        filter=fat -text #      15554 16
test/regression/references/Elasticity.h                                        filter=fat -text #     254943 32
test/regression/references/Elasticity.out                                      filter=fat -text #      40448 17
test/regression/references/ElementRestriction.h                                filter=fat -text #     446263 17
test/regression/references/ElementRestriction.out                              filter=fat -text #      45912 10
test/regression/references/EnergyNorm.h                                        filter=fat -text #      65961 37
test/regression/references/Equation.h                                          filter=fat -text #      89248 33
test/regression/references/Equation.out                                        filter=fat -text #      12557 3
test/regression/references/FacetIntegrals.h                                    filter=fat -text #     129379 34
test/regression/references/FacetIntegrals.out                                  filter=fat -text #      15862 14
test/regression/references/FacetRestrictionAD.h                                filter=fat -text #      94771 17
test/regression/references/FacetRestrictionAD.out                              filter=fat -text #      17604 6
test/regression/references/FunctionOperators.h                                 filter=fat -text #      83422 21
test/regression/references/FunctionOperators.out                               filter=fat -text #      11329 3
test/regression/references/Heat.h                                              filter=fat -text #     157446 40
test/regression/references/Heat.out                                            filter=fat -text #      19077 19
test/regression/references/HyperElasticity.h                                   filter=fat -text #    1063554 39
test/regression/references/HyperElasticity.out                                 filter=fat -text #     191861 19
test/regression/references/Mass.h                                              filter=fat -text #     848566 33
test/regression/references/Mass.out                                            filter=fat -text #      40976 18
test/regression/references/MathFunctions.h                                     filter=fat -text #      49755 20
test/regression/references/MetaData.h                                          filter=fat -text #      56616 38
test/regression/references/MetaData.out                                        filter=fat -text #      11320 3
test/regression/references/Mini.h                                              filter=fat -text #     247911 17
test/regression/references/Mini.out                                            filter=fat -text #      29168 5
test/regression/references/MixedMixedElement.h                                 filter=fat -text #     845945 37
test/regression/references/MixedMixedElement.out                               filter=fat -text #      48893 12
test/regression/references/MixedPoisson.h                                      filter=fat -text #     246492 35
test/regression/references/MixedPoisson.out                                    filter=fat -text #      40308 19
test/regression/references/NavierStokes.h                                      filter=fat -text #     380292 31
test/regression/references/NavierStokes.out                                    filter=fat -text #      57294 17
test/regression/references/NeumannProblem.h                                    filter=fat -text #     332998 33
test/regression/references/NeumannProblem.out                                  filter=fat -text #      42854 17
test/regression/references/Normals.h                                           filter=fat -text #     203449 38
test/regression/references/Normals.out                                         filter=fat -text #      26228 17
test/regression/references/Optimization.h                                      filter=fat -text #     186167 32
test/regression/references/Optimization.out                                    filter=fat -text #      28913 18
test/regression/references/output/AdaptivePoisson.json                         filter=fat -text #     157825 4
test/regression/references/output/AdaptivePoisson.out                          filter=fat -text #     113192 10
test/regression/references/output/Biharmonic.json                              filter=fat -text #      62330 3
test/regression/references/output/Biharmonic.out                               filter=fat -text #      45610 10
test/regression/references/output/CoefficientOperators.json                    filter=fat -text #      13840 3
test/regression/references/output/Components.json                              filter=fat -text #      60266 3
test/regression/references/output/Components.out                               filter=fat -text #      37604 9
test/regression/references/output/Constant.json                                filter=fat -text #      20305 3
test/regression/references/output/Constant.out                                 filter=fat -text #      13739 9
test/regression/references/output/Elasticity.json                              filter=fat -text #      63584 3
test/regression/references/output/Elasticity.out                               filter=fat -text #      40424 9
test/regression/references/output/Equation.json                                filter=fat -text #      14512 3
test/regression/references/output/Equation.out                                 filter=fat -text #      10153 3
test/regression/references/output/FacetIntegrals.json                          filter=fat -text #      22246 3
test/regression/references/output/FacetIntegrals.out                           filter=fat -text #      15858 8
test/regression/references/output/FacetRestrictionAD.json                      filter=fat -text #      24462 3
test/regression/references/output/FacetRestrictionAD.out                       filter=fat -text #      17976 7
test/regression/references/output/Heat.json                                    filter=fat -text #      24976 3
test/regression/references/output/Heat.out                                     filter=fat -text #      17347 9
test/regression/references/output/HyperElasticity.json                         filter=fat -text #     224529 3
test/regression/references/output/HyperElasticity.out                          filter=fat -text #     143665 10
test/regression/references/output/Mass.json                                    filter=fat -text #      55150 3
test/regression/references/output/Mass.out                                     filter=fat -text #      41163 9
test/regression/references/output/Mini.json                                    filter=fat -text #      45419 3
test/regression/references/output/Mini.out                                     filter=fat -text #      29168 9
test/regression/references/output/MixedMixedElement.json                       filter=fat -text #      74401 3
test/regression/references/output/MixedMixedElement.out                        filter=fat -text #      48909 9
test/regression/references/output/MixedPoisson.json                            filter=fat -text #      54848 3
test/regression/references/output/MixedPoisson.out                             filter=fat -text #      37214 9
test/regression/references/output/NavierStokes.json                            filter=fat -text #      91446 3
test/regression/references/output/NavierStokes.out                             filter=fat -text #      57294 9
test/regression/references/output/NeumannProblem.json                          filter=fat -text #      65325 3
test/regression/references/output/NeumannProblem.out                           filter=fat -text #      42833 9
test/regression/references/output/Normals.json                                 filter=fat -text #      40477 3
test/regression/references/output/Normals.out                                  filter=fat -text #      26318 9
test/regression/references/output/Optimization.json                            filter=fat -text #      39808 3
test/regression/references/output/Optimization.out                             filter=fat -text #      29196 9
test/regression/references/output/P5tet.json                                   filter=fat -text #      52677 2
test/regression/references/output/P5tet.out                                    filter=fat -text #      40021 1
test/regression/references/output/P5tri.json                                   filter=fat -text #      13826 2
test/regression/references/output/P5tri.out                                    filter=fat -text #      10387 1
test/regression/references/output/PointMeasure.json                            filter=fat -text #      29401 4
test/regression/references/output/PointMeasure.out                             filter=fat -text #      20425 6
test/regression/references/output/PoissonDG.json                               filter=fat -text #      28394 3
test/regression/references/output/PoissonDG.out                                filter=fat -text #      20326 10
test/regression/references/output/Poisson.json                                 filter=fat -text #      14514 3
test/regression/references/output/Poisson.out                                  filter=fat -text #      10138 3
test/regression/references/output/ProjectionManifold.json                      filter=fat -text #      31943 3
test/regression/references/output/ProjectionManifold.out                       filter=fat -text #      20853 11
test/regression/references/output/QuadratureElement.json                       filter=fat -text #      52557 3
test/regression/references/output/QuadratureElement.out                        filter=fat -text #      36237 9
test/regression/references/output/ReactionDiffusion.json                       filter=fat -text #      14514 3
test/regression/references/output/ReactionDiffusion.out                        filter=fat -text #      10142 3
test/regression/references/output/RestrictedElement.json                       filter=fat -text #      69143 3
test/regression/references/output/RestrictedElement.out                        filter=fat -text #      45800 9
test/regression/references/output/SpatialCoordinates.json                      filter=fat -text #      20495 3
test/regression/references/output/SpatialCoordinates.out                       filter=fat -text #      14722 9
test/regression/references/output/StabilisedStokes.json                        filter=fat -text #      98021 3
test/regression/references/output/StabilisedStokes.out                         filter=fat -text #      62986 9
test/regression/references/output/Stokes.json                                  filter=fat -text #     159761 3
test/regression/references/output/Stokes.out                                   filter=fat -text #     105724 9
test/regression/references/output/SubDomains.json                              filter=fat -text #      30586 3
test/regression/references/output/SubDomains.out                               filter=fat -text #      19662 8
test/regression/references/output/TensorWeightedPoisson.json                   filter=fat -text #      20736 3
test/regression/references/output/TensorWeightedPoisson.out                    filter=fat -text #      13436 9
test/regression/references/output/VectorLaplaceGradCurl.json                   filter=fat -text #     182600 3
test/regression/references/output/VectorLaplaceGradCurl.out                    filter=fat -text #     121169 9
test/regression/references/output/VectorPoisson.json                           filter=fat -text #      52258 3
test/regression/references/output/VectorPoisson.out                            filter=fat -text #      34127 9
test/regression/references/output/X_Element1.json                              filter=fat -text #      92776 2
test/regression/references/output/X_Element1.out                               filter=fat -text #      66378 1
test/regression/references/output/X_Element4.json                              filter=fat -text #      12345 2
test/regression/references/output/X_Element5.json                              filter=fat -text #      17417 2
test/regression/references/output/X_Element5.out                               filter=fat -text #      11378 2
test/regression/references/output/X_Element6.json                              filter=fat -text #      31591 2
test/regression/references/output/X_Element6.out                               filter=fat -text #      22234 1
test/regression/references/output/X_Element7.json                              filter=fat -text #      64595 2
test/regression/references/output/X_Element7.out                               filter=fat -text #      44061 2
test/regression/references/output/X_Element8.json                              filter=fat -text #     121391 2
test/regression/references/output/X_Element8.out                               filter=fat -text #      84309 2
test/regression/references/output/X_Element9.json                              filter=fat -text #     120671 2
test/regression/references/output/X_Element9.out                               filter=fat -text #      81851 2
test/regression/references/P2.h                                                filter=fat -text #      96072 1
test/regression/references/P2.out                                              filter=fat -text #      18202 1
test/regression/references/P5tet.h                                             filter=fat -text #   11707786 33
test/regression/references/P5tet.out                                           filter=fat -text #      40005 10
test/regression/references/P5tri.h                                             filter=fat -text #     696566 33
test/regression/references/P5tri.out                                           filter=fat -text #      10397 2
test/regression/references/PoissonDG.h                                         filter=fat -text #     172768 40
test/regression/references/PoissonDG.out                                       filter=fat -text #      30801 19
test/regression/references/Poisson.h                                           filter=fat -text #      86839 33
test/regression/references/Poisson.out                                         filter=fat -text #      10623 3
test/regression/references/PoissonSystem.h                                     filter=fat -text #     263202 26
test/regression/references/PoissonSystem.out                                   filter=fat -text #      34106 15
test/regression/references/Projection.h                                        filter=fat -text #      26209 1
test/regression/references/QuadratureElement.h                                 filter=fat -text #     175636 39
test/regression/references/QuadratureElement.out                               filter=fat -text #      36107 19
test/regression/references/r_auto/AdaptivePoisson.h                            filter=fat -text #     475034 26
test/regression/references/r_auto/AdaptivePoisson.out                          filter=fat -text #      16623 2
test/regression/references/r_auto/AlgebraOperators.h                           filter=fat -text #      51035 26
test/regression/references/r_auto/Biharmonic.h                                 filter=fat -text #     165494 28
test/regression/references/r_auto/Biharmonic.out                               filter=fat -text #      45342 3
test/regression/references/r_auto/CoefficientOperators.h                       filter=fat -text #      45744 25
test/regression/references/r_auto/Components.h                                 filter=fat -text #     181816 25
test/regression/references/r_auto/Components.out                               filter=fat -text #      37604 1
test/regression/references/r_auto/Conditional.h                                filter=fat -text #      86582 30
test/regression/references/r_auto/Constant.h                                   filter=fat -text #      90208 25
test/regression/references/r_auto/Constant.out                                 filter=fat -text #      13537 2
test/regression/references/r_auto/Elasticity.h                                 filter=fat -text #     214361 26
test/regression/references/r_auto/Elasticity.out                               filter=fat -text #      40424 1
test/regression/references/r_auto/EnergyNorm.h                                 filter=fat -text #      61275 25
test/regression/references/r_auto/Equation.h                                   filter=fat -text #      48979 24
test/regression/references/r_auto/FacetIntegrals.h                             filter=fat -text #     117709 28
test/regression/references/r_auto/FacetIntegrals.out                           filter=fat -text #      15862 2
test/regression/references/r_auto/FacetRestrictionAD.h                         filter=fat -text #      86334 26
test/regression/references/r_auto/FacetRestrictionAD.out                       filter=fat -text #      17604 1
test/regression/references/r_auto/Heat.h                                       filter=fat -text #      67078 26
test/regression/references/r_auto/Heat.out                                     filter=fat -text #      17189 2
test/regression/references/r_auto/HyperElasticity.h                            filter=fat -text #     311693 28
test/regression/references/r_auto/HyperElasticity.out                          filter=fat -text #     143685 2
test/regression/references/r_auto/Mass.h                                       filter=fat -text #     553957 25
test/regression/references/r_auto/Mass.out                                     filter=fat -text #      40976 2
test/regression/references/r_auto/MathFunctions.h                              filter=fat -text #      51326 29
test/regression/references/r_auto/MetaData.h                                   filter=fat -text #      53543 25
test/regression/references/r_auto/Mini.h                                       filter=fat -text #     224956 25
test/regression/references/r_auto/Mini.out                                     filter=fat -text #      29168 1
test/regression/references/r_auto/MixedMixedElement.h                          filter=fat -text #     703767 26
test/regression/references/r_auto/MixedMixedElement.out                        filter=fat -text #      48909 2
test/regression/references/r_auto/MixedPoisson.h                               filter=fat -text #     176524 26
test/regression/references/r_auto/MixedPoisson.out                             filter=fat -text #      37160 1
test/regression/references/r_auto/NavierStokes.h                               filter=fat -text #     206369 25
test/regression/references/r_auto/NavierStokes.out                             filter=fat -text #      57294 1
test/regression/references/r_auto/NeumannProblem.h                             filter=fat -text #     107183 25
test/regression/references/r_auto/NeumannProblem.out                           filter=fat -text #      42833 1
test/regression/references/r_auto/Normals.h                                    filter=fat -text #     105887 27
test/regression/references/r_auto/Normals.out                                  filter=fat -text #      26228 1
test/regression/references/r_auto_O/AdaptivePoisson.h                          filter=fat -text #     183177 1
test/regression/references/r_auto_O/AdaptivePoisson.out                        filter=fat -text #      16615 1
test/regression/references/r_auto_O/AlgebraOperators.h                         filter=fat -text #      50911 1
test/regression/references/r_auto_O/Biharmonic.h                               filter=fat -text #     255025 1
test/regression/references/r_auto_O/Biharmonic.out                             filter=fat -text #      45344 1
test/regression/references/r_auto_O/CoefficientOperators.h                     filter=fat -text #      46614 1
test/regression/references/r_auto_O/Components.h                               filter=fat -text #     181812 1
test/regression/references/r_auto_O/Components.out                             filter=fat -text #      37604 1
test/regression/references/r_auto_O/Conditional.h                              filter=fat -text #      83931 1
test/regression/references/r_auto_O/Constant.h                                 filter=fat -text #      90204 1
test/regression/references/r_auto_O/Constant.out                               filter=fat -text #      13537 1
test/regression/references/r_auto_O/Elasticity.h                               filter=fat -text #     214357 1
test/regression/references/r_auto_O/Elasticity.out                             filter=fat -text #      40424 1
test/regression/references/r_auto_O/EnergyNorm.h                               filter=fat -text #      61776 1
test/regression/references/r_auto_O/Equation.h                                 filter=fat -text #      48975 1
test/regression/references/r_auto_O/FacetIntegrals.h                           filter=fat -text #     117705 1
test/regression/references/r_auto_O/FacetIntegrals.out                         filter=fat -text #      15862 1
test/regression/references/r_auto_O/FacetRestrictionAD.h                       filter=fat -text #      86330 1
test/regression/references/r_auto_O/FacetRestrictionAD.out                     filter=fat -text #      17604 1
test/regression/references/r_auto_O/Heat.h                                     filter=fat -text #      68224 1
test/regression/references/r_auto_O/Heat.out                                   filter=fat -text #      17189 1
test/regression/references/r_auto_O/HyperElasticity.h                          filter=fat -text #     367480 1
test/regression/references/r_auto_O/HyperElasticity.out                        filter=fat -text #     143689 1
test/regression/references/r_auto_O/Mass.h                                     filter=fat -text #     553953 1
test/regression/references/r_auto_O/Mass.out                                   filter=fat -text #      40976 1
test/regression/references/r_auto_O/MathFunctions.h                            filter=fat -text #      48406 1
test/regression/references/r_auto_O/MetaData.h                                 filter=fat -text #      55412 1
test/regression/references/r_auto_O/Mini.h                                     filter=fat -text #     224952 1
test/regression/references/r_auto_O/Mini.out                                   filter=fat -text #      29168 1
test/regression/references/r_auto_O/MixedMixedElement.h                        filter=fat -text #     703763 1
test/regression/references/r_auto_O/MixedMixedElement.out                      filter=fat -text #      48893 1
test/regression/references/r_auto_O/MixedPoisson.h                             filter=fat -text #     176520 1
test/regression/references/r_auto_O/MixedPoisson.out                           filter=fat -text #      37160 1
test/regression/references/r_auto_O/NavierStokes.h                             filter=fat -text #     206365 1
test/regression/references/r_auto_O/NavierStokes.out                           filter=fat -text #      57294 1
test/regression/references/r_auto_O/NeumannProblem.h                           filter=fat -text #     107179 1
test/regression/references/r_auto_O/NeumannProblem.out                         filter=fat -text #      42833 1
test/regression/references/r_auto_O/Normals.h                                  filter=fat -text #     106293 1
test/regression/references/r_auto_O/Normals.out                                filter=fat -text #      26228 1
test/regression/references/r_auto_O/Optimization.h                             filter=fat -text #     150326 1
test/regression/references/r_auto_O/Optimization.out                           filter=fat -text #      28774 1
test/regression/references/r_auto_O/P5tet.h                                    filter=fat -text #    6011545 1
test/regression/references/r_auto_O/P5tet.out                                  filter=fat -text #      39987 1
test/regression/references/r_auto_O/P5tri.h                                    filter=fat -text #     437276 1
test/regression/references/r_auto_O/P5tri.out                                  filter=fat -text #      10397 1
test/regression/references/r_auto_O/PoissonDG.h                                filter=fat -text #     129094 1
test/regression/references/r_auto_O/PoissonDG.out                              filter=fat -text #      20101 1
test/regression/references/r_auto_O/Poisson.h                                  filter=fat -text #      46805 1
test/regression/references/r_auto/Optimization.h                               filter=fat -text #     150330 25
test/regression/references/r_auto/Optimization.out                             filter=fat -text #      28806 2
test/regression/references/r_auto_O/QuadratureElement.h                        filter=fat -text #     129064 1
test/regression/references/r_auto_O/QuadratureElement.out                      filter=fat -text #      36106 1
test/regression/references/r_auto_O/ReactionDiffusion.h                        filter=fat -text #      47514 1
test/regression/references/r_auto_O/RestrictedElement.h                        filter=fat -text #     336330 1
test/regression/references/r_auto_O/RestrictedElement.out                      filter=fat -text #      45584 1
test/regression/references/r_auto_O/SpatialCoordinates.h                       filter=fat -text #      98666 1
test/regression/references/r_auto_O/SpatialCoordinates.out                     filter=fat -text #      14273 1
test/regression/references/r_auto_O/StabilisedStokes.h                         filter=fat -text #     190899 1
test/regression/references/r_auto_O/StabilisedStokes.out                       filter=fat -text #      62953 1
test/regression/references/r_auto_O/Stokes.h                                   filter=fat -text #     420267 1
test/regression/references/r_auto_O/Stokes.out                                 filter=fat -text #     105636 1
test/regression/references/r_auto_O/SubDomain.h                                filter=fat -text #      62132 1
test/regression/references/r_auto_O/SubDomains.h                               filter=fat -text #     128466 1
test/regression/references/r_auto_O/SubDomains.out                             filter=fat -text #      19492 1
test/regression/references/r_auto_O/TensorWeightedPoisson.h                    filter=fat -text #      97756 1
test/regression/references/r_auto_O/TensorWeightedPoisson.out                  filter=fat -text #      13435 1
test/regression/references/r_auto_O/VectorLaplaceGradCurl.h                    filter=fat -text #    1013796 1
test/regression/references/r_auto_O/VectorLaplaceGradCurl.out                  filter=fat -text #     121193 1
test/regression/references/r_auto_O/VectorPoisson.h                            filter=fat -text #     102819 1
test/regression/references/r_auto_O/VectorPoisson.out                          filter=fat -text #      34127 1
test/regression/references/r_auto_O/X_Element0.h                               filter=fat -text #     112348 1
test/regression/references/r_auto_O/X_Element1.h                               filter=fat -text #     694800 1
test/regression/references/r_auto_O/X_Element1.out                             filter=fat -text #      45474 1
test/regression/references/r_auto_O/X_Element2.h                               filter=fat -text #      49161 1
test/regression/references/r_auto/P5tet.h                                      filter=fat -text #    6381888 19
test/regression/references/r_auto/P5tet.out                                    filter=fat -text #      40021 2
test/regression/references/r_auto/P5tri.h                                      filter=fat -text #     468335 19
test/regression/references/r_auto/P5tri.out                                    filter=fat -text #      10397 2
test/regression/references/r_auto/PointMeasure.h                               filter=fat -text #     233033 5
test/regression/references/r_auto/Poisson1D.h                                  filter=fat -text #      37126 8
test/regression/references/r_auto/PoissonDG.h                                  filter=fat -text #     112802 29
test/regression/references/r_auto/PoissonDG.out                                filter=fat -text #      20080 2
test/regression/references/r_auto/Poisson.h                                    filter=fat -text #      46916 24
test/regression/references/r_auto/ProjectionManifold.h                         filter=fat -text #     133690 15
test/regression/references/r_auto/QuadratureElement.h                          filter=fat -text #     126629 27
test/regression/references/r_auto/QuadratureElement.out                        filter=fat -text #      36127 2
test/regression/references/r_auto/ReactionDiffusion.h                          filter=fat -text #      47518 24
test/regression/references/r_auto/RestrictedElement.h                          filter=fat -text #     336334 24
test/regression/references/r_auto/RestrictedElement.out                        filter=fat -text #      45624 2
test/regression/references/r_auto/SpatialCoordinates.h                         filter=fat -text #      98121 26
test/regression/references/r_auto/SpatialCoordinates.out                       filter=fat -text #      14285 2
test/regression/references/r_auto/StabilisedStokes.h                           filter=fat -text #     189196 27
test/regression/references/r_auto/StabilisedStokes.out                         filter=fat -text #      62986 1
test/regression/references/r_auto/Stokes.h                                     filter=fat -text #     420271 25
test/regression/references/r_auto/Stokes.out                                   filter=fat -text #     105724 2
test/regression/references/r_auto/SubDomain.h                                  filter=fat -text #      62136 24
test/regression/references/r_auto/SubDomains.h                                 filter=fat -text #     128470 24
test/regression/references/r_auto/SubDomains.out                               filter=fat -text #      19492 1
test/regression/references/r_auto/TensorWeightedPoisson.h                      filter=fat -text #      97804 27
test/regression/references/r_auto/TensorWeightedPoisson.out                    filter=fat -text #      13436 1
test/regression/references/r_auto/VectorLaplaceGradCurl.h                      filter=fat -text #    1006886 27
test/regression/references/r_auto/VectorLaplaceGradCurl.out                    filter=fat -text #     121193 2
test/regression/references/r_auto/VectorPoisson.h                              filter=fat -text #     102823 25
test/regression/references/r_auto/VectorPoisson.out                            filter=fat -text #      34127 1
test/regression/references/r_auto/X_Element0.h                                 filter=fat -text #     112352 20
test/regression/references/r_auto/X_Element1.h                                 filter=fat -text #     695224 20
test/regression/references/r_auto/X_Element1.out                               filter=fat -text #      66378 3
test/regression/references/r_auto/X_Element2.h                                 filter=fat -text #      49895 15
test/regression/references/r_auto/X_Element3.h                                 filter=fat -text #      62102 12
test/regression/references/r_auto/X_Element4.h                                 filter=fat -text #      73721 12
test/regression/references/r_auto/X_Element5.h                                 filter=fat -text #     107866 12
test/regression/references/r_auto/X_Element6.h                                 filter=fat -text #     165096 12
test/regression/references/r_auto/X_Element7.h                                 filter=fat -text #     202713 12
test/regression/references/r_auto/X_Element8.h                                 filter=fat -text #     433930 12
test/regression/references/r_auto/X_Element9.h                                 filter=fat -text #     454819 12
test/regression/references/ReactionDiffusion.h                                 filter=fat -text #      88777 32
test/regression/references/ReactionDiffusion.out                               filter=fat -text #      11008 3
test/regression/references/RestrictedElement.h                                 filter=fat -text #     449150 15
test/regression/references/RestrictedElement.out                               filter=fat -text #      45658 3
test/regression/references/r_quadrature/AdaptivePoisson.h                      filter=fat -text #     508537 26
test/regression/references/r_quadrature/AdaptivePoisson.out                    filter=fat -text #      16630 2
test/regression/references/r_quadrature/AlgebraOperators.h                     filter=fat -text #      51041 24
test/regression/references/r_quadrature/Biharmonic.h                           filter=fat -text #     166455 26
test/regression/references/r_quadrature/Biharmonic.out                         filter=fat -text #      45347 3
test/regression/references/r_quadrature/CoefficientOperators.h                 filter=fat -text #      45750 23
test/regression/references/r_quadrature/Components.h                           filter=fat -text #     183190 24
test/regression/references/r_quadrature/Components.out                         filter=fat -text #      37603 1
test/regression/references/r_quadrature/Conditional.h                          filter=fat -text #      86588 28
test/regression/references/r_quadrature/Constant.h                             filter=fat -text #      91264 25
test/regression/references/r_quadrature/Constant.out                           filter=fat -text #      13550 2
test/regression/references/r_quadrature/Elasticity.h                           filter=fat -text #     186714 25
test/regression/references/r_quadrature/Elasticity.out                         filter=fat -text #      40411 1
test/regression/references/r_quadrature/EnergyNorm.h                           filter=fat -text #      61281 23
test/regression/references/r_quadrature/Equation.h                             filter=fat -text #      50401 25
test/regression/references/r_quadrature/FacetIntegrals.h                       filter=fat -text #     116270 27
test/regression/references/r_quadrature/FacetIntegrals.out                     filter=fat -text #      15881 2
test/regression/references/r_quadrature/FacetRestrictionAD.h                   filter=fat -text #      93150 26
test/regression/references/r_quadrature/FacetRestrictionAD.out                 filter=fat -text #      17603 1
test/regression/references/r_quadrature/Heat.h                                 filter=fat -text #      67732 25
test/regression/references/r_quadrature/Heat.out                               filter=fat -text #      17198 2
test/regression/references/r_quadrature/HyperElasticity.h                      filter=fat -text #     316629 26
test/regression/references/r_quadrature/HyperElasticity.out                    filter=fat -text #     143689 2
test/regression/references/r_quadrature/Mass.h                                 filter=fat -text #     551329 24
test/regression/references/r_quadrature/Mass.out                               filter=fat -text #      43876 2
test/regression/references/r_quadrature/MathFunctions.h                        filter=fat -text #      51332 27
test/regression/references/r_quadrature/MetaData.h                             filter=fat -text #      53549 23
test/regression/references/r_quadrature/Mini.h                                 filter=fat -text #     224485 25
test/regression/references/r_quadrature/Mini.out                               filter=fat -text #      29268 1
test/regression/references/r_quadrature/MixedMixedElement.h                    filter=fat -text #     705079 26
test/regression/references/r_quadrature/MixedMixedElement.out                  filter=fat -text #      48909 2
test/regression/references/r_quadrature/MixedPoisson.h                         filter=fat -text #     173050 26
test/regression/references/r_quadrature/MixedPoisson.out                       filter=fat -text #      37217 1
test/regression/references/r_quadrature/NavierStokes.h                         filter=fat -text #     187890 24
test/regression/references/r_quadrature/NavierStokes.out                       filter=fat -text #      57291 1
test/regression/references/r_quadrature/NeumannProblem.h                       filter=fat -text #     111576 25
test/regression/references/r_quadrature/NeumannProblem.out                     filter=fat -text #      42840 1
test/regression/references/r_quadrature/Normals.h                              filter=fat -text #     106932 25
test/regression/references/r_quadrature/Normals.out                            filter=fat -text #      26228 1
test/regression/references/r_quadrature_O/AdaptivePoisson.h                    filter=fat -text #     513675 23
test/regression/references/r_quadrature_O/AdaptivePoisson.out                  filter=fat -text #      16622 1
test/regression/references/r_quadrature_O/AlgebraOperators.h                   filter=fat -text #      50917 22
test/regression/references/r_quadrature_O/Biharmonic.h                         filter=fat -text #     256141 25
test/regression/references/r_quadrature_O/Biharmonic.out                       filter=fat -text #      45349 1
test/regression/references/r_quadrature_O/CoefficientOperators.h               filter=fat -text #      46620 21
test/regression/references/r_quadrature_O/Components.h                         filter=fat -text #     182803 21
test/regression/references/r_quadrature_O/Components.out                       filter=fat -text #      37604 1
test/regression/references/r_quadrature_O/Conditional.h                        filter=fat -text #      86679 26
test/regression/references/r_quadrature_O/Constant.h                           filter=fat -text #      92091 22
test/regression/references/r_quadrature_O/Constant.out                         filter=fat -text #      13556 1
test/regression/references/r_quadrature_O/Elasticity.h                         filter=fat -text #     196645 22
test/regression/references/r_quadrature_O/Elasticity.out                       filter=fat -text #      40417 1
test/regression/references/r_quadrature_O/EnergyNorm.h                         filter=fat -text #      61782 21
test/regression/references/r_quadrature_O/Equation.h                           filter=fat -text #      52413 22
test/regression/references/r_quadrature_O/FacetIntegrals.h                     filter=fat -text #     129895 23
test/regression/references/r_quadrature_O/FacetIntegrals.out                   filter=fat -text #      15880 1
test/regression/references/r_quadrature_O/FacetRestrictionAD.h                 filter=fat -text #     105930 23
test/regression/references/r_quadrature_O/FacetRestrictionAD.out               filter=fat -text #      17597 1
test/regression/references/r_quadrature_O/Heat.h                               filter=fat -text #      69121 22
test/regression/references/r_quadrature_O/Heat.out                             filter=fat -text #      17198 1
test/regression/references/r_quadrature_O/HyperElasticity.h                    filter=fat -text #     416259 26
test/regression/references/r_quadrature_O/HyperElasticity.out                  filter=fat -text #     143692 1
test/regression/references/r_quadrature_O/Mass.h                               filter=fat -text #     551480 21
test/regression/references/r_quadrature_O/Mass.out                             filter=fat -text #      43866 1
test/regression/references/r_quadrature_O/MathFunctions.h                      filter=fat -text #      51281 23
test/regression/references/r_quadrature_O/MetaData.h                           filter=fat -text #      55418 21
test/regression/references/r_quadrature_O/Mini.h                               filter=fat -text #     225582 22
test/regression/references/r_quadrature_O/Mini.out                             filter=fat -text #      29268 1
test/regression/references/r_quadrature_O/MixedMixedElement.h                  filter=fat -text #     704355 23
test/regression/references/r_quadrature_O/MixedMixedElement.out                filter=fat -text #      48893 1
test/regression/references/r_quadrature_O/MixedPoisson.h                       filter=fat -text #     175122 23
test/regression/references/r_quadrature_O/MixedPoisson.out                     filter=fat -text #      37220 1
test/regression/references/r_quadrature_O/NavierStokes.h                       filter=fat -text #     186098 21
test/regression/references/r_quadrature_O/NavierStokes.out                     filter=fat -text #      57291 1
test/regression/references/r_quadrature_O/NeumannProblem.h                     filter=fat -text #     113278 22
test/regression/references/r_quadrature_O/NeumannProblem.out                   filter=fat -text #      42840 1
test/regression/references/r_quadrature_O/Normals.h                            filter=fat -text #     107849 22
test/regression/references/r_quadrature_O/Normals.out                          filter=fat -text #      26228 1
test/regression/references/r_quadrature_O/Optimization.h                       filter=fat -text #     149528 22
test/regression/references/r_quadrature_O/Optimization.out                     filter=fat -text #      28912 1
test/regression/references/r_quadrature_O/P5tet.h                              filter=fat -text #    6381893 15
test/regression/references/r_quadrature_O/P5tet.out                            filter=fat -text #      39987 1
test/regression/references/r_quadrature_O/P5tri.h                              filter=fat -text #     468340 15
test/regression/references/r_quadrature_O/P5tri.out                            filter=fat -text #      10397 1
test/regression/references/r_quadrature_O/PointMeasure.h                       filter=fat -text #     229767 5
test/regression/references/r_quadrature_O/Poisson1D.h                          filter=fat -text #      39142 10
test/regression/references/r_quadrature_O/PoissonDG.h                          filter=fat -text #     134456 24
test/regression/references/r_quadrature_O/PoissonDG.out                        filter=fat -text #      20103 1
test/regression/references/r_quadrature_O/Poisson.h                            filter=fat -text #      49095 22
test/regression/references/r_quadrature_O/ProjectionManifold.h                 filter=fat -text #     132789 15
test/regression/references/r_quadrature/Optimization.h                         filter=fat -text #     148507 25
test/regression/references/r_quadrature/Optimization.out                       filter=fat -text #      28944 2
test/regression/references/r_quadrature_O/QuadratureElement.h                  filter=fat -text #     129070 22
test/regression/references/r_quadrature_O/QuadratureElement.out                filter=fat -text #      36106 1
test/regression/references/r_quadrature_O/ReactionDiffusion.h                  filter=fat -text #      50522 22
test/regression/references/r_quadrature_O/RestrictedElement.h                  filter=fat -text #     218999 22
test/regression/references/r_quadrature_O/RestrictedElement.out                filter=fat -text #      45490 1
test/regression/references/r_quadrature_O/SpatialCoordinates.h                 filter=fat -text #      99246 23
test/regression/references/r_quadrature_O/SpatialCoordinates.out               filter=fat -text #      14395 1
test/regression/references/r_quadrature_O/StabilisedStokes.h                   filter=fat -text #     190905 22
test/regression/references/r_quadrature_O/StabilisedStokes.out                 filter=fat -text #      62953 1
test/regression/references/r_quadrature_O/Stokes.h                             filter=fat -text #     416780 23
test/regression/references/r_quadrature_O/Stokes.out                           filter=fat -text #     106502 1
test/regression/references/r_quadrature_O/SubDomain.h                          filter=fat -text #      66441 21
test/regression/references/r_quadrature_O/SubDomains.h                         filter=fat -text #     119627 21
test/regression/references/r_quadrature_O/SubDomains.out                       filter=fat -text #      19525 1
test/regression/references/r_quadrature_O/TensorWeightedPoisson.h              filter=fat -text #      97762 22
test/regression/references/r_quadrature_O/TensorWeightedPoisson.out            filter=fat -text #      13435 1
test/regression/references/r_quadrature_O/VectorLaplaceGradCurl.h              filter=fat -text #    1004132 24
test/regression/references/r_quadrature_O/VectorLaplaceGradCurl.out            filter=fat -text #     121193 1
test/regression/references/r_quadrature_O/VectorPoisson.h                      filter=fat -text #     105175 22
test/regression/references/r_quadrature_O/VectorPoisson.out                    filter=fat -text #      34131 1
test/regression/references/r_quadrature_O/X_Element0.h                         filter=fat -text #     112354 16
test/regression/references/r_quadrature_O/X_Element1.h                         filter=fat -text #     694806 15
test/regression/references/r_quadrature_O/X_Element1.out                       filter=fat -text #      45474 1
test/regression/references/r_quadrature_O/X_Element2.h                         filter=fat -text #      49900 14
test/regression/references/r_quadrature_O/X_Element3.h                         filter=fat -text #      62107 12
test/regression/references/r_quadrature_O/X_Element4.h                         filter=fat -text #      73726 12
test/regression/references/r_quadrature_O/X_Element5.h                         filter=fat -text #     107871 12
test/regression/references/r_quadrature_O/X_Element6.h                         filter=fat -text #     165101 12
test/regression/references/r_quadrature_O/X_Element7.h                         filter=fat -text #     202718 12
test/regression/references/r_quadrature_O/X_Element8.h                         filter=fat -text #     433935 12
test/regression/references/r_quadrature_O/X_Element9.h                         filter=fat -text #     454824 12
test/regression/references/r_quadrature/P5tet.h                                filter=fat -text #    6381894 18
test/regression/references/r_quadrature/P5tet.out                              filter=fat -text #      40021 2
test/regression/references/r_quadrature/P5tri.h                                filter=fat -text #     468341 18
test/regression/references/r_quadrature/P5tri.out                              filter=fat -text #      10397 2
test/regression/references/r_quadrature/PointMeasure.h                         filter=fat -text #     233868 5
test/regression/references/r_quadrature/Poisson1D.h                            filter=fat -text #      38879 10
test/regression/references/r_quadrature/PoissonDG.h                            filter=fat -text #     116957 27
test/regression/references/r_quadrature/PoissonDG.out                          filter=fat -text #      20082 2
test/regression/references/r_quadrature/Poisson.h                              filter=fat -text #      48409 24
test/regression/references/r_quadrature/ProjectionManifold.h                   filter=fat -text #     132649 15
test/regression/references/r_quadrature/QuadratureElement.h                    filter=fat -text #     126635 25
test/regression/references/r_quadrature/QuadratureElement.out                  filter=fat -text #      36127 2
test/regression/references/r_quadrature/ReactionDiffusion.h                    filter=fat -text #      49242 24
test/regression/references/r_quadrature/RestrictedElement.h                    filter=fat -text #     218864 25
test/regression/references/r_quadrature/RestrictedElement.out                  filter=fat -text #      45522 2
test/regression/references/r_quadrature/SpatialCoordinates.h                   filter=fat -text #      97823 25
test/regression/references/r_quadrature/SpatialCoordinates.out                 filter=fat -text #      14404 2
test/regression/references/r_quadrature/StabilisedStokes.h                     filter=fat -text #     189202 25
test/regression/references/r_quadrature/StabilisedStokes.out                   filter=fat -text #      62986 1
test/regression/references/r_quadrature/Stokes.h                               filter=fat -text #     417647 25
test/regression/references/r_quadrature/Stokes.out                             filter=fat -text #     106597 2
test/regression/references/r_quadrature/SubDomain.h                            filter=fat -text #      65453 23
test/regression/references/r_quadrature/SubDomains.h                           filter=fat -text #     112995 23
test/regression/references/r_quadrature/SubDomains.out                         filter=fat -text #      19556 1
test/regression/references/r_quadrature/TensorWeightedPoisson.h                filter=fat -text #      97810 25
test/regression/references/r_quadrature/TensorWeightedPoisson.out              filter=fat -text #      13436 1
test/regression/references/r_quadrature/VectorLaplaceGradCurl.h                filter=fat -text #     999041 25
test/regression/references/r_quadrature/VectorLaplaceGradCurl.out              filter=fat -text #     121194 2
test/regression/references/r_quadrature/VectorPoisson.h                        filter=fat -text #     104164 25
test/regression/references/r_quadrature/VectorPoisson.out                      filter=fat -text #      34131 1
test/regression/references/r_quadrature/X_Element0.h                           filter=fat -text #     112358 19
test/regression/references/r_quadrature/X_Element1.h                           filter=fat -text #     695230 19
test/regression/references/r_quadrature/X_Element1.out                         filter=fat -text #      66378 3
test/regression/references/r_quadrature/X_Element2.h                           filter=fat -text #      49901 15
test/regression/references/r_quadrature/X_Element3.h                           filter=fat -text #      62108 12
test/regression/references/r_quadrature/X_Element4.h                           filter=fat -text #      73727 12
test/regression/references/r_quadrature/X_Element5.h                           filter=fat -text #     107872 12
test/regression/references/r_quadrature/X_Element6.h                           filter=fat -text #     165102 12
test/regression/references/r_quadrature/X_Element7.h                           filter=fat -text #     202719 12
test/regression/references/r_quadrature/X_Element8.h                           filter=fat -text #     433936 12
test/regression/references/r_quadrature/X_Element9.h                           filter=fat -text #     454825 12
test/regression/references/SpatialCoordinates.h                                filter=fat -text #     109746 25
test/regression/references/SpatialCoordinates.out                              filter=fat -text #      14273 8
test/regression/references/StabilisedStokes.h                                  filter=fat -text #     460867 44
test/regression/references/StabilisedStokes.out                                filter=fat -text #      71028 19
test/regression/references/Stokes.h                                            filter=fat -text #     537697 35
test/regression/references/Stokes.out                                          filter=fat -text #     105636 17
test/regression/references/SubDomain.h                                         filter=fat -text #      65374 30
test/regression/references/SubDomains.h                                        filter=fat -text #     144229 34
test/regression/references/SubDomains.out                                      filter=fat -text #      19492 17
test/regression/reference/StabilisedStokes.h                                   filter=fat -text #     464050 6
test/regression/references/TensorWeightedPoisson.h                             filter=fat -text #     139145 37
test/regression/references/TensorWeightedPoisson.out                           filter=fat -text #      13477 12
test/regression/references/test.h                                              filter=fat -text #      40872 3
test/regression/reference/Stokes.h                                             filter=fat -text #     534439 10
test/regression/reference/SubDomain.h                                          filter=fat -text #      45621 10
test/regression/reference/SubDomains.h                                         filter=fat -text #     119102 10
test/regression/references/VectorLaplaceGradCurl.h                             filter=fat -text #    1235519 44
test/regression/references/VectorLaplaceGradCurl.out                           filter=fat -text #     121312 18
test/regression/references/VectorPoisson.h                                     filter=fat -text #     107045 30
test/regression/references/VectorPoisson.out                                   filter=fat -text #      34127 10
test/regression/references/X_Element0.h                                        filter=fat -text #     127174 28
test/regression/references/X_Element1.h                                        filter=fat -text #     890123 15
test/regression/references/X_Element1.out                                      filter=fat -text #      45510 3
test/regression/references/X_Element2.h                                        filter=fat -text #      49638 2
test/regression/reference/tensor/Constant.h                                    filter=fat -text #     137916 7
test/regression/reference/tensor/Elasticity.h                                  filter=fat -text #     285780 7
test/regression/reference/tensor/ElementRestriction.h                          filter=fat -text #     175085 5
test/regression/reference/tensor/EnergyNorm.h                                  filter=fat -text #      37900 6
test/regression/reference/tensor/Equation.h                                    filter=fat -text #      89157 9
test/regression/reference/tensor/FacetIntegrals.h                              filter=fat -text #     131801 4
test/regression/reference/tensor/Heat.h                                        filter=fat -text #     158372 7
test/regression/reference/tensor/Mass.h                                        filter=fat -text #     197009 7
test/regression/reference/tensor/MetaData.h                                    filter=fat -text #      54598 6
test/regression/reference/tensor/MixedMixedElement.h                           filter=fat -text #     336184 5
test/regression/reference/tensor/MixedPoisson.h                                filter=fat -text #     248474 7
test/regression/reference/tensor/NavierStokes.h                                filter=fat -text #     398488 7
test/regression/reference/tensor/NeumannProblem.h                              filter=fat -text #     330473 6
test/regression/reference/tensor/Normals.h                                     filter=fat -text #     204500 1
test/regression/reference/tensor/Optimization.h                                filter=fat -text #     150409 7
test/regression/reference/tensor/P5tet.h                                       filter=fat -text #     447093 5
test/regression/reference/tensor/P5tri.h                                       filter=fat -text #      74288 5
test/regression/reference/tensor/Poisson.h                                     filter=fat -text #      85792 7
test/regression/reference/tensor/PoissonSystem.h                               filter=fat -text #     263451 7
test/regression/reference/tensor/ReactionDiffusion.h                           filter=fat -text #      86834 7
test/regression/reference/tensor/StabilisedStokes.h                            filter=fat -text #     485884 7
test/regression/reference/tensor/Stokes.h                                      filter=fat -text #     536869 7
test/regression/reference/tensor/SubDomain.h                                   filter=fat -text #      46692 6
test/regression/reference/tensor/SubDomains.h                                  filter=fat -text #     129336 7
test/regression/reference/tensor/VectorLaplaceGradCurl.h                       filter=fat -text #     731365 7
test/regression/reference/TensorWeightedPoisson.h                              filter=fat -text #     141284 10
test/regression/reference/VectorLaplaceGradCurl.h                              filter=fat -text #     617960 10
test/regression/tmp/P5tet.h                                                    filter=fat -text #     488485 1
test/regression/tmp/P5tri.h                                                    filter=fat -text #      77615 1
test/regression/tmp/TensorWeightedPoisson.h                                    filter=fat -text #     137049 1
test/regression/ufctest.h                                                      filter=fat -text #      26364 54
test/simple_verify_tensors/reference.pickle                                    filter=fat -text #    2072390 17
test/unit/evaluate_basis/reference_basis_derivatives.pickle                    filter=fat -text #    4891045 1
test/unit/evaluate_basis/reference_basis.pickle                                filter=fat -text #     171689 1
test/verify_tensors/references/Mass_a                                          filter=fat -text #      10325 1
